﻿<?xml version="1.0" encoding="utf-8"?>
<TestCase Name="FiddlerGeneratedWebTest" Id="" Owner="" Description="" Priority="0" Enabled="True" CssProjectStructure="" CssIteration="" DeploymentItemsEditable="" CredentialUserName="" CredentialPassword="" PreAuthenticate="True" Proxy="" RequestCallbackClass="" TestCaseCallbackClass="">
  <Items>
    <Comment CommentText="[#36]" />
    <Request Method="POST" Version="1.1" Url="https://app.adjust.com/sdk_click" ThinkTime="0" Timeout="60" ParseDependentRequests="True" FollowRedirects="True" RecordResult="True" Cache="False" ResponseTimeGoal="0" Encoding="utf-8">
      <Headers>
        <Header Name="tracestate" Value="@nr=0-2-0-0-36ab19d77ea2863a--0--1656312075254" />
        <Header Name="newrelic" Value="ewoiZCI6IHsKImFjIjogIjAiLAoiYXAiOiAiMCIsCiJpZCI6ICIzNmFiMTlkNzdlYTI4NjNhIiwKInRpIjogMTY1NjMxMjA3NTI1NCwKInRyIjogIjhiYzk4MGRhNTdhOWZiM2JlNDJjODlhM2U3NDJkMDVlIiwKInR5IjogIk1vYmlsZSIKfSwKInYiOiBbCjAsCjIKXQp9" />
        <Header Name="Client-Sdk" Value="ios4.29.6" />
        <Header Name="Content-Type" Value="application/x-www-form-urlencoded" />
        <Header Name="traceparent" Value="00-8bc980da57a9fb3be42c89a3e742d05e-36ab19d77ea2863a-00" />
      </Headers>
      <FormPostHttpBody ContentType="application/x-www-form-urlencoded">
        <FormPostParameter Name="bundle_id" Value="tr.com.boyner.ios" UrlEncode="True" />
        <FormPostParameter Name="source" Value="apple_ads" UrlEncode="True" />
        <FormPostParameter Name="primary_dedupe_token" Value="cf2e13d3-cdfa-4f9d-b348-dfa055a6f963" UrlEncode="True" />
        <FormPostParameter Name="app_version" Value="71" UrlEncode="True" />
        <FormPostParameter Name="installed_at" Value="2022-06-27T12:09:36.229Z+0530" UrlEncode="True" />
        <FormPostParameter Name="device_name" Value="iPhone8,1" UrlEncode="True" />
        <FormPostParameter Name="app_version_short" Value="6.0.5" UrlEncode="True" />
        <FormPostParameter Name="needs_response_details" Value="1" UrlEncode="True" />
        <FormPostParameter Name="attribution_deeplink" Value="1" UrlEncode="True" />
        <FormPostParameter Name="last_interval" Value="2" UrlEncode="True" />
        <FormPostParameter Name="skadn_registered_at" Value="2022-06-27T12:11:09.254Z+0530" UrlEncode="True" />
        <FormPostParameter Name="session_count" Value="1" UrlEncode="True" />
        <FormPostParameter Name="os_name" Value="ios" UrlEncode="True" />
        <FormPostParameter Name="session_length" Value="4" UrlEncode="True" />
        <FormPostParameter Name="error_code" Value="100" UrlEncode="True" />
        <FormPostParameter Name="event_buffering_enabled" Value="0" UrlEncode="True" />
        <FormPostParameter Name="idfv" Value="8DBF4137-3A44-497C-AB53-F462BA70A535" UrlEncode="True" />
        <FormPostParameter Name="environment" Value="production" UrlEncode="True" />
        <FormPostParameter Name="app_token" Value="8k6tmp5qrv9g" UrlEncode="True" />
        <FormPostParameter Name="os_version" Value="14.7.1" UrlEncode="True" />
        <FormPostParameter Name="subsession_count" Value="2" UrlEncode="True" />
        <FormPostParameter Name="started_at" Value="2022-06-21T14:39:33.000Z+0530" UrlEncode="True" />
        <FormPostParameter Name="time_spent" Value="0" UrlEncode="True" />
        <FormPostParameter Name="created_at" Value="2022-06-27T12:11:15.232Z+0530" UrlEncode="True" />
        <FormPostParameter Name="device_type" Value="iPhone" UrlEncode="True" />
        <FormPostParameter Name="att_status" Value="3" UrlEncode="True" />
        <FormPostParameter Name="idfa" Value="9213080A-3CA9-4EDA-9D93-E29D8B293D0F" UrlEncode="True" />
        <FormPostParameter Name="sent_at" Value="2022-06-27T12:11:15.253Z+0530" UrlEncode="True" />
      </FormPostHttpBody>
    </Request>
    <Comment CommentText="[#42]" />
    <Request Method="POST" Version="1.1" Url="https://app.adjust.com/session" ThinkTime="1" Timeout="60" ParseDependentRequests="True" FollowRedirects="True" RecordResult="True" Cache="False" ResponseTimeGoal="0" Encoding="utf-8">
      <Headers>
        <Header Name="tracestate" Value="@nr=0-2-0-0-7dfe7a544bb2e3bf--0--1656312069808" />
        <Header Name="newrelic" Value="ewoiZCI6IHsKImFjIjogIjAiLAoiYXAiOiAiMCIsCiJpZCI6ICI3ZGZlN2E1NDRiYjJlM2JmIiwKInRpIjogMTY1NjMxMjA2OTgwOCwKInRyIjogIjJiN2ZlYTIwYjQxMzJkZTM1YWEzYWVkMDc4NWMyODE4IiwKInR5IjogIk1vYmlsZSIKfSwKInYiOiBbCjAsCjIKXQp9" />
        <Header Name="Client-Sdk" Value="ios4.29.6" />
        <Header Name="Content-Type" Value="application/x-www-form-urlencoded" />
        <Header Name="traceparent" Value="00-2b7fea20b4132de35aa3aed0785c2818-7dfe7a544bb2e3bf-00" />
      </Headers>
      <FormPostHttpBody ContentType="application/x-www-form-urlencoded">
        <FormPostParameter Name="bundle_id" Value="tr.com.boyner.ios" UrlEncode="True" />
        <FormPostParameter Name="primary_dedupe_token" Value="cf2e13d3-cdfa-4f9d-b348-dfa055a6f963" UrlEncode="True" />
        <FormPostParameter Name="app_version" Value="71" UrlEncode="True" />
        <FormPostParameter Name="installed_at" Value="2022-06-27T12:09:36.229Z+0530" UrlEncode="True" />
        <FormPostParameter Name="device_name" Value="iPhone8,1" UrlEncode="True" />
        <FormPostParameter Name="app_version_short" Value="6.0.5" UrlEncode="True" />
        <FormPostParameter Name="needs_response_details" Value="1" UrlEncode="True" />
        <FormPostParameter Name="attribution_deeplink" Value="1" UrlEncode="True" />
        <FormPostParameter Name="skadn_registered_at" Value="2022-06-27T12:11:09.254Z+0530" UrlEncode="True" />
        <FormPostParameter Name="session_count" Value="1" UrlEncode="True" />
        <FormPostParameter Name="os_name" Value="ios" UrlEncode="True" />
        <FormPostParameter Name="event_buffering_enabled" Value="0" UrlEncode="True" />
        <FormPostParameter Name="idfv" Value="8DBF4137-3A44-497C-AB53-F462BA70A535" UrlEncode="True" />
        <FormPostParameter Name="environment" Value="production" UrlEncode="True" />
        <FormPostParameter Name="app_token" Value="8k6tmp5qrv9g" UrlEncode="True" />
        <FormPostParameter Name="os_version" Value="14.7.1" UrlEncode="True" />
        <FormPostParameter Name="started_at" Value="2022-06-21T14:39:33.000Z+0530" UrlEncode="True" />
        <FormPostParameter Name="created_at" Value="2022-06-27T12:11:09.692Z+0530" UrlEncode="True" />
        <FormPostParameter Name="device_type" Value="iPhone" UrlEncode="True" />
        <FormPostParameter Name="att_status" Value="0" UrlEncode="True" />
        <FormPostParameter Name="sent_at" Value="2022-06-27T12:11:09.807Z+0530" UrlEncode="True" />
      </FormPostHttpBody>
    </Request>
    <Comment CommentText="[#70]" />
    <Request Method="POST" Version="1.1" Url="https://app.adjust.com/event" ThinkTime="0" Timeout="60" ParseDependentRequests="True" FollowRedirects="True" RecordResult="True" Cache="False" ResponseTimeGoal="0" Encoding="utf-8">
      <Headers>
        <Header Name="tracestate" Value="@nr=0-2-0-0-489be8a95bf8ed56--0--1656312083543" />
        <Header Name="newrelic" Value="ewoiZCI6IHsKImFjIjogIjAiLAoiYXAiOiAiMCIsCiJpZCI6ICI0ODliZThhOTViZjhlZDU2IiwKInRpIjogMTY1NjMxMjA4MzU0MywKInRyIjogImVhNTQ2ZjQ5ZDM2NmY4ZWMxZjVjYTQ4ZjkwMjkxMjY4IiwKInR5IjogIk1vYmlsZSIKfSwKInYiOiBbCjAsCjIKXQp9" />
        <Header Name="Client-Sdk" Value="ios4.29.6" />
        <Header Name="Content-Type" Value="application/x-www-form-urlencoded" />
        <Header Name="traceparent" Value="00-ea546f49d366f8ec1f5ca48f90291268-489be8a95bf8ed56-00" />
      </Headers>
      <FormPostHttpBody ContentType="application/x-www-form-urlencoded">
        <FormPostParameter Name="bundle_id" Value="tr.com.boyner.ios" UrlEncode="True" />
        <FormPostParameter Name="primary_dedupe_token" Value="cf2e13d3-cdfa-4f9d-b348-dfa055a6f963" UrlEncode="True" />
        <FormPostParameter Name="app_version" Value="71" UrlEncode="True" />
        <FormPostParameter Name="installed_at" Value="2022-06-27T12:09:36.229Z+0530" UrlEncode="True" />
        <FormPostParameter Name="device_name" Value="iPhone8,1" UrlEncode="True" />
        <FormPostParameter Name="app_version_short" Value="6.0.5" UrlEncode="True" />
        <FormPostParameter Name="needs_response_details" Value="1" UrlEncode="True" />
        <FormPostParameter Name="attribution_deeplink" Value="1" UrlEncode="True" />
        <FormPostParameter Name="skadn_registered_at" Value="2022-06-27T12:11:09.254Z+0530" UrlEncode="True" />
        <FormPostParameter Name="session_count" Value="1" UrlEncode="True" />
        <FormPostParameter Name="os_name" Value="ios" UrlEncode="True" />
        <FormPostParameter Name="event_count" Value="1" UrlEncode="True" />
        <FormPostParameter Name="session_length" Value="0" UrlEncode="True" />
        <FormPostParameter Name="event_buffering_enabled" Value="0" UrlEncode="True" />
        <FormPostParameter Name="idfv" Value="8DBF4137-3A44-497C-AB53-F462BA70A535" UrlEncode="True" />
        <FormPostParameter Name="environment" Value="production" UrlEncode="True" />
        <FormPostParameter Name="app_token" Value="8k6tmp5qrv9g" UrlEncode="True" />
        <FormPostParameter Name="os_version" Value="14.7.1" UrlEncode="True" />
        <FormPostParameter Name="subsession_count" Value="1" UrlEncode="True" />
        <FormPostParameter Name="started_at" Value="2022-06-21T14:39:33.000Z+0530" UrlEncode="True" />
        <FormPostParameter Name="time_spent" Value="0" UrlEncode="True" />
        <FormPostParameter Name="created_at" Value="2022-06-27T12:11:09.808Z+0530" UrlEncode="True" />
        <FormPostParameter Name="device_type" Value="iPhone" UrlEncode="True" />
        <FormPostParameter Name="event_token" Value="jj5msb" UrlEncode="True" />
        <FormPostParameter Name="att_status" Value="0" UrlEncode="True" />
        <FormPostParameter Name="sent_at" Value="2022-06-27T12:11:23.542Z+0530" UrlEncode="True" />
      </FormPostHttpBody>
    </Request>
    <Comment CommentText="[#71]" />
    <Request Method="GET" Version="1.1" Url="https://app.adjust.com/attribution" ThinkTime="0" Timeout="60" ParseDependentRequests="True" FollowRedirects="True" RecordResult="True" Cache="False" ResponseTimeGoal="0" Encoding="utf-8">
      <Headers>
        <Header Name="Client-Sdk" Value="ios4.29.6" />
        <Header Name="tracestate" Value="@nr=0-2-0-0-9f26aaad2d7114ba--0--1656312083573" />
        <Header Name="traceparent" Value="00-3afab0b7aca6010975e7669361e139cb-9f26aaad2d7114ba-00" />
        <Header Name="newrelic" Value="ewoiZCI6IHsKImFjIjogIjAiLAoiYXAiOiAiMCIsCiJpZCI6ICI5ZjI2YWFhZDJkNzExNGJhIiwKInRpIjogMTY1NjMxMjA4MzU3MywKInRyIjogIjNhZmFiMGI3YWNhNjAxMDk3NWU3NjY5MzYxZTEzOWNiIiwKInR5IjogIk1vYmlsZSIKfSwKInYiOiBbCjAsCjIKXQp9" />
      </Headers>
      <QueryStringParameters>
        <QueryStringParameter Name="bundle_id" Value="tr.com.boyner.ios" UrlEncode="True" UseToGroupResults="False" />
        <QueryStringParameter Name="primary_dedupe_token" Value="cf2e13d3-cdfa-4f9d-b348-dfa055a6f963" UrlEncode="True" UseToGroupResults="False" />
        <QueryStringParameter Name="initiated_by" Value="sdk" UrlEncode="True" UseToGroupResults="False" />
        <QueryStringParameter Name="app_version" Value="71" UrlEncode="True" UseToGroupResults="False" />
        <QueryStringParameter Name="installed_at" Value="2022-06-27T12:09:36.229Z+0530" UrlEncode="True" UseToGroupResults="False" />
        <QueryStringParameter Name="device_name" Value="iPhone8,1" UrlEncode="True" UseToGroupResults="False" />
        <QueryStringParameter Name="app_version_short" Value="6.0.5" UrlEncode="True" UseToGroupResults="False" />
        <QueryStringParameter Name="needs_response_details" Value="1" UrlEncode="True" UseToGroupResults="False" />
        <QueryStringParameter Name="attribution_deeplink" Value="1" UrlEncode="True" UseToGroupResults="False" />
        <QueryStringParameter Name="skadn_registered_at" Value="2022-06-27T12:11:09.254Z+0530" UrlEncode="True" UseToGroupResults="False" />
        <QueryStringParameter Name="os_name" Value="ios" UrlEncode="True" UseToGroupResults="False" />
        <QueryStringParameter Name="event_buffering_enabled" Value="0" UrlEncode="True" UseToGroupResults="False" />
        <QueryStringParameter Name="idfv" Value="8DBF4137-3A44-497C-AB53-F462BA70A535" UrlEncode="True" UseToGroupResults="False" />
        <QueryStringParameter Name="environment" Value="production" UrlEncode="True" UseToGroupResults="False" />
        <QueryStringParameter Name="app_token" Value="8k6tmp5qrv9g" UrlEncode="True" UseToGroupResults="False" />
        <QueryStringParameter Name="os_version" Value="14.7.1" UrlEncode="True" UseToGroupResults="False" />
        <QueryStringParameter Name="started_at" Value="2022-06-21T14:39:33.000Z+0530" UrlEncode="True" UseToGroupResults="False" />
        <QueryStringParameter Name="created_at" Value="2022-06-27T12:11:23.565Z+0530" UrlEncode="True" UseToGroupResults="False" />
        <QueryStringParameter Name="device_type" Value="iPhone" UrlEncode="True" UseToGroupResults="False" />
        <QueryStringParameter Name="att_status" Value="3" UrlEncode="True" UseToGroupResults="False" />
        <QueryStringParameter Name="idfa" Value="9213080A-3CA9-4EDA-9D93-E29D8B293D0F" UrlEncode="True" UseToGroupResults="False" />
        <QueryStringParameter Name="sent_at" Value="2022-06-27T12:11:23.573Z+0530" UrlEncode="True" UseToGroupResults="False" />
      </QueryStringParameters>
    </Request>
    <Comment CommentText="[#72]" />
    <Request Method="POST" Version="1.1" Url="https://app.adjust.com/sdk_click" ThinkTime="2" Timeout="60" ParseDependentRequests="True" FollowRedirects="True" RecordResult="True" Cache="False" ResponseTimeGoal="0" Encoding="utf-8">
      <Headers>
        <Header Name="tracestate" Value="@nr=0-2-0-0-6fc501276795133b--0--1656312083559" />
        <Header Name="newrelic" Value="ewoiZCI6IHsKImFjIjogIjAiLAoiYXAiOiAiMCIsCiJpZCI6ICI2ZmM1MDEyNzY3OTUxMzNiIiwKInRpIjogMTY1NjMxMjA4MzU1OSwKInRyIjogIjE3NjFmODVkZDdmYzNlMTg0Njg1YmQwZDliYzUzODRkIiwKInR5IjogIk1vYmlsZSIKfSwKInYiOiBbCjAsCjIKXQp9" />
        <Header Name="Client-Sdk" Value="ios4.29.6" />
        <Header Name="Content-Type" Value="application/x-www-form-urlencoded" />
        <Header Name="traceparent" Value="00-1761f85dd7fc3e184685bd0d9bc5384d-6fc501276795133b-00" />
      </Headers>
      <FormPostHttpBody ContentType="application/x-www-form-urlencoded">
        <FormPostParameter Name="bundle_id" Value="tr.com.boyner.ios" UrlEncode="True" />
        <FormPostParameter Name="source" Value="deeplink" UrlEncode="True" />
        <FormPostParameter Name="primary_dedupe_token" Value="cf2e13d3-cdfa-4f9d-b348-dfa055a6f963" UrlEncode="True" />
        <FormPostParameter Name="click_time" Value="2022-06-27T12:11:23.527Z+0530" UrlEncode="True" />
        <FormPostParameter Name="app_version" Value="71" UrlEncode="True" />
        <FormPostParameter Name="installed_at" Value="2022-06-27T12:09:36.229Z+0530" UrlEncode="True" />
        <FormPostParameter Name="device_name" Value="iPhone8,1" UrlEncode="True" />
        <FormPostParameter Name="app_version_short" Value="6.0.5" UrlEncode="True" />
        <FormPostParameter Name="needs_response_details" Value="1" UrlEncode="True" />
        <FormPostParameter Name="attribution_deeplink" Value="1" UrlEncode="True" />
        <FormPostParameter Name="last_interval" Value="0" UrlEncode="True" />
        <FormPostParameter Name="skadn_registered_at" Value="2022-06-27T12:11:09.254Z+0530" UrlEncode="True" />
        <FormPostParameter Name="session_count" Value="1" UrlEncode="True" />
        <FormPostParameter Name="os_name" Value="ios" UrlEncode="True" />
        <FormPostParameter Name="deeplink" Value="tr.com.boyner.ios://google/link/?request_ip_version=IP%5FV4&amp;match_message=No%20pre%2Dinstall%20link%20matched%20for%20this%20device%2E" UrlEncode="True" />
        <FormPostParameter Name="session_length" Value="14" UrlEncode="True" />
        <FormPostParameter Name="event_buffering_enabled" Value="0" UrlEncode="True" />
        <FormPostParameter Name="idfv" Value="8DBF4137-3A44-497C-AB53-F462BA70A535" UrlEncode="True" />
        <FormPostParameter Name="environment" Value="production" UrlEncode="True" />
        <FormPostParameter Name="app_token" Value="8k6tmp5qrv9g" UrlEncode="True" />
        <FormPostParameter Name="os_version" Value="14.7.1" UrlEncode="True" />
        <FormPostParameter Name="subsession_count" Value="2" UrlEncode="True" />
        <FormPostParameter Name="started_at" Value="2022-06-21T14:39:33.000Z+0530" UrlEncode="True" />
        <FormPostParameter Name="time_spent" Value="10" UrlEncode="True" />
        <FormPostParameter Name="created_at" Value="2022-06-27T12:11:23.549Z+0530" UrlEncode="True" />
        <FormPostParameter Name="device_type" Value="iPhone" UrlEncode="True" />
        <FormPostParameter Name="att_status" Value="3" UrlEncode="True" />
        <FormPostParameter Name="idfa" Value="9213080A-3CA9-4EDA-9D93-E29D8B293D0F" UrlEncode="True" />
        <FormPostParameter Name="sent_at" Value="2022-06-27T12:11:23.559Z+0530" UrlEncode="True" />
      </FormPostHttpBody>
    </Request>
    <Comment CommentText="[#79]" />
    <Request Method="POST" Version="1.1" Url="https://app.adjust.com/event" ThinkTime="22" Timeout="60" ParseDependentRequests="True" FollowRedirects="True" RecordResult="True" Cache="False" ResponseTimeGoal="0" Encoding="utf-8">
      <Headers>
        <Header Name="tracestate" Value="@nr=0-2-0-0-c1174fdc2661698d--0--1656312085048" />
        <Header Name="newrelic" Value="ewoiZCI6IHsKImFjIjogIjAiLAoiYXAiOiAiMCIsCiJpZCI6ICJjMTE3NGZkYzI2NjE2OThkIiwKInRpIjogMTY1NjMxMjA4NTA0OCwKInRyIjogIjdhNjFhOGQ0ODAzM2YyM2VhM2EwZjRlZTRiYzNjZDJjIiwKInR5IjogIk1vYmlsZSIKfSwKInYiOiBbCjAsCjIKXQp9" />
        <Header Name="Client-Sdk" Value="ios4.29.6" />
        <Header Name="Content-Type" Value="application/x-www-form-urlencoded" />
        <Header Name="traceparent" Value="00-7a61a8d48033f23ea3a0f4ee4bc3cd2c-c1174fdc2661698d-00" />
      </Headers>
      <FormPostHttpBody ContentType="application/x-www-form-urlencoded">
        <FormPostParameter Name="bundle_id" Value="tr.com.boyner.ios" UrlEncode="True" />
        <FormPostParameter Name="primary_dedupe_token" Value="cf2e13d3-cdfa-4f9d-b348-dfa055a6f963" UrlEncode="True" />
        <FormPostParameter Name="app_version" Value="71" UrlEncode="True" />
        <FormPostParameter Name="installed_at" Value="2022-06-27T12:09:36.229Z+0530" UrlEncode="True" />
        <FormPostParameter Name="device_name" Value="iPhone8,1" UrlEncode="True" />
        <FormPostParameter Name="app_version_short" Value="6.0.5" UrlEncode="True" />
        <FormPostParameter Name="needs_response_details" Value="1" UrlEncode="True" />
        <FormPostParameter Name="attribution_deeplink" Value="1" UrlEncode="True" />
        <FormPostParameter Name="skadn_registered_at" Value="2022-06-27T12:11:09.254Z+0530" UrlEncode="True" />
        <FormPostParameter Name="event_count" Value="2" UrlEncode="True" />
        <FormPostParameter Name="os_name" Value="ios" UrlEncode="True" />
        <FormPostParameter Name="session_count" Value="1" UrlEncode="True" />
        <FormPostParameter Name="session_length" Value="14" UrlEncode="True" />
        <FormPostParameter Name="partner_params" Value="{&quot;criteo_deeplink&quot;:&quot;tr.com.boyner.ios:\/\/google\/link\/?request_ip_version=IP%5FV4&amp;match_message=No%20pre%2Dinstall%20link%20matched%20for%20this%20device%2E&quot;}" UrlEncode="True" />
        <FormPostParameter Name="event_buffering_enabled" Value="0" UrlEncode="True" />
        <FormPostParameter Name="idfv" Value="8DBF4137-3A44-497C-AB53-F462BA70A535" UrlEncode="True" />
        <FormPostParameter Name="environment" Value="production" UrlEncode="True" />
        <FormPostParameter Name="app_token" Value="8k6tmp5qrv9g" UrlEncode="True" />
        <FormPostParameter Name="os_version" Value="14.7.1" UrlEncode="True" />
        <FormPostParameter Name="subsession_count" Value="2" UrlEncode="True" />
        <FormPostParameter Name="started_at" Value="2022-06-21T14:39:33.000Z+0530" UrlEncode="True" />
        <FormPostParameter Name="time_spent" Value="10" UrlEncode="True" />
        <FormPostParameter Name="created_at" Value="2022-06-27T12:11:23.527Z+0530" UrlEncode="True" />
        <FormPostParameter Name="device_type" Value="iPhone" UrlEncode="True" />
        <FormPostParameter Name="event_token" Value="ddfx3q" UrlEncode="True" />
        <FormPostParameter Name="att_status" Value="3" UrlEncode="True" />
        <FormPostParameter Name="idfa" Value="9213080A-3CA9-4EDA-9D93-E29D8B293D0F" UrlEncode="True" />
        <FormPostParameter Name="sent_at" Value="2022-06-27T12:11:25.046Z+0530" UrlEncode="True" />
      </FormPostHttpBody>
    </Request>
    <Comment CommentText="[#102]" />
    <Request Method="POST" Version="1.1" Url="https://app.adjust.com/sdk_info" ThinkTime="0" Timeout="60" ParseDependentRequests="True" FollowRedirects="True" RecordResult="True" Cache="False" ResponseTimeGoal="0" Encoding="utf-8">
      <Headers>
        <Header Name="tracestate" Value="@nr=0-2-0-0-e9090ec4a7cd4d2b--0--1656312095755" />
        <Header Name="newrelic" Value="ewoiZCI6IHsKImFjIjogIjAiLAoiYXAiOiAiMCIsCiJpZCI6ICJlOTA5MGVjNGE3Y2Q0ZDJiIiwKInRpIjogMTY1NjMxMjA5NTc1NSwKInRyIjogIjczMmZhYjBkM2Q1NmRiYTdiNDAwZDE3ZWViMGIzM2IwIiwKInR5IjogIk1vYmlsZSIKfSwKInYiOiBbCjAsCjIKXQp9" />
        <Header Name="Client-Sdk" Value="ios4.29.6" />
        <Header Name="Content-Type" Value="application/x-www-form-urlencoded" />
        <Header Name="traceparent" Value="00-732fab0d3d56dba7b400d17eeb0b33b0-e9090ec4a7cd4d2b-00" />
      </Headers>
      <FormPostHttpBody ContentType="application/x-www-form-urlencoded">
        <FormPostParameter Name="bundle_id" Value="tr.com.boyner.ios" UrlEncode="True" />
        <FormPostParameter Name="source" Value="push" UrlEncode="True" />
        <FormPostParameter Name="primary_dedupe_token" Value="cf2e13d3-cdfa-4f9d-b348-dfa055a6f963" UrlEncode="True" />
        <FormPostParameter Name="push_token" Value="1c8e2efa5e81056e073799668744e48a4d43fe642a048b056348acbe86faa2fe" UrlEncode="True" />
        <FormPostParameter Name="app_version" Value="71" UrlEncode="True" />
        <FormPostParameter Name="installed_at" Value="2022-06-27T12:09:36.229Z+0530" UrlEncode="True" />
        <FormPostParameter Name="device_name" Value="iPhone8,1" UrlEncode="True" />
        <FormPostParameter Name="app_version_short" Value="6.0.5" UrlEncode="True" />
        <FormPostParameter Name="needs_response_details" Value="1" UrlEncode="True" />
        <FormPostParameter Name="attribution_deeplink" Value="1" UrlEncode="True" />
        <FormPostParameter Name="last_interval" Value="0" UrlEncode="True" />
        <FormPostParameter Name="skadn_registered_at" Value="2022-06-27T12:11:09.254Z+0530" UrlEncode="True" />
        <FormPostParameter Name="session_count" Value="1" UrlEncode="True" />
        <FormPostParameter Name="os_name" Value="ios" UrlEncode="True" />
        <FormPostParameter Name="session_length" Value="14" UrlEncode="True" />
        <FormPostParameter Name="event_buffering_enabled" Value="0" UrlEncode="True" />
        <FormPostParameter Name="idfv" Value="8DBF4137-3A44-497C-AB53-F462BA70A535" UrlEncode="True" />
        <FormPostParameter Name="environment" Value="production" UrlEncode="True" />
        <FormPostParameter Name="app_token" Value="8k6tmp5qrv9g" UrlEncode="True" />
        <FormPostParameter Name="os_version" Value="14.7.1" UrlEncode="True" />
        <FormPostParameter Name="subsession_count" Value="2" UrlEncode="True" />
        <FormPostParameter Name="started_at" Value="2022-06-21T14:39:33.000Z+0530" UrlEncode="True" />
        <FormPostParameter Name="time_spent" Value="10" UrlEncode="True" />
        <FormPostParameter Name="created_at" Value="2022-06-27T12:11:35.732Z+0530" UrlEncode="True" />
        <FormPostParameter Name="device_type" Value="iPhone" UrlEncode="True" />
        <FormPostParameter Name="att_status" Value="3" UrlEncode="True" />
        <FormPostParameter Name="idfa" Value="9213080A-3CA9-4EDA-9D93-E29D8B293D0F" UrlEncode="True" />
        <FormPostParameter Name="sent_at" Value="2022-06-27T12:11:35.754Z+0530" UrlEncode="True" />
      </FormPostHttpBody>
    </Request>
  </Items>
</TestCase>